IE_XML_ID;IE_NAME;IE_ID;IE_ACTIVE;IE_ACTIVE_FROM;IE_ACTIVE_TO;IE_PREVIEW_PICTURE;IE_PREVIEW_TEXT;IE_PREVIEW_TEXT_TYPE;IE_DETAIL_PICTURE;IE_DETAIL_TEXT;IE_DETAIL_TEXT_TYPE;IE_CODE;IE_SORT;IE_TAGS;IP_PROP26;IP_PROP25;IC_GROUP0;IC_GROUP1;IC_GROUP2
317;Test;317;Y;19.07.2020 16:47:00;;;;text;;;text;test;500;;1;LAB4U_TEST;;;
317;Test;317;Y;19.07.2020 16:47:00;;;;text;;;text;test;500;;1;LAB4U_TEST;;;
